%YAML 1.1
%TAG !u! tag:unity3d.com,2011:
--- !u!21 &2100000
Material:
  serializedVersion: 6
  m_ObjectHideFlags: 0
  m_PrefabParentObject: {fileID: 0}
  m_PrefabInternal: {fileID: 0}
  m_Name: Billboard_Diffuse_Bumped Colored
  m_Shader: {fileID: 4800000, guid: a13a107b34d7143439410fc3f7c97017, type: 3}
  m_ShaderKeywords: 
  m_LightmapFlags: 4
  m_EnableInstancingVariants: 0
  m_DoubleSidedGI: 0
  m_CustomRenderQueue: -1
  stringTagMap: {}
  disabledShaderPasses: []
  m_SavedProperties:
    serializedVersion: 3
    m_TexEnvs:
    - _BumpMap:
        m_Texture: {fileID: 0}
        m_Scale: {x: 1, y: 1}
        m_Offset: {x: 0, y: 0}
    - _MainTex:
        m_Texture: {fileID: 2800000, guid: ec3bc11fdab43254080dee486d1b2ebe, type: 3}
        m_Scale: {x: 1, y: 1}
        m_Offset: {x: 0, y: 0}
    m_Floats:
    - _BumpIntensity: 1
    - _CurrentRow: 1
    - _Cutoff: 0.5
    - _StartFrame: 1
    m_Colors:
    - _Cells: {r: 8, g: 5, b: 10, a: 0}
    - _Color: {r: 1, g: 1, b: 1, a: 1}
